{
  "status": 200,
  "data": [
    {
      "contact_details": {
        "contact_id": 529,
        "salutation": "Please Specify",
        "initial": "Prepaid annon",
        "first_name": "Prepaid_529",
        "last_name": "Prepaid_529",
        "date_of_birth": -6847812000000,
        "Email_address": "prepaid@vf.com",
        "primary_phone": "31600000170",
        "proof_of_residence": "Prepaid annon"
      }
    }
  ],
  "error": []
}