{
  "status":200,
  "data":[{
    "searchAssignedProductOutputData" : {
        "SearchAssignedProductData" : [ {
            "assignedProductHeader" : {
                "licenseType" : "PAKKET",
                "productStatus" : "AC",
                "effectiveSinceDate" : "04-06-2019 06:18:01",
                "productState" : "AS",
                "productCode" : "PAKKET",
                "customerID" : 590007340,
                "catalogProductID" : 8822668,
                "catalogProductName" : "GL Pakket",
                "offerID" : 8834208,
                "assignedOfferID" : 100095140,
                "offerName" : "BPO_Zakelijk Internet Start, Bellen en TV Start CI+",
                "provisioningDate" : "04-06-2019 06:18:01",
                "simpleCatalogOfferName" : "PO_GLP Zakelijk Internet Start, Bellen en TV Start CI+"
            },
            "assignedProductId" : 100095138,
            "assignedProductPendingOrdersInd" : false,
            "glpFlag" : false
        }, {
            "assignedProductHeader" : {
                "licenseType" : "TV",
                "productStatus" : "AC",
                "effectiveSinceDate" : "04-06-2019 23:59:59",
                "productState" : "OR",
                "productCode" : "TV",
                "subscriptionID" : 5837,
                "customerID" : 590007340,
                "serviceID" : "100095138_TV",
                "catalogProductID" : 8822368,
                "catalogProductName" : "TV",
                "offerID" : 8834208,
                "assignedOfferID" : 100095140,
                "offerName" : "BPO_Zakelijk Internet Start, Bellen en TV Start CI+",
                "provisioningDate" : "04-06-2019 06:17:58",
                "simpleCatalogOfferName" : "PO_TV Zakelijk TV Start CI+"
            },
            "assignedProductId" : 100095141,
            "assignedProductPendingOrdersInd" : true,
            "glpFlag" : false
        }, {
            "assignedProductHeader" : {
                "licenseType" : "INTERNET",
                "productStatus" : "AC",
                "effectiveSinceDate" : "12-06-2019 23:59:59",
                "productState" : "OR",
                "productCode" : "INTERNET",
                "subscriptionID" : 5839,
                "customerID" : 590007340,
                "serviceID" : "100095138_INTERNET",
                "catalogProductID" : 8831818,
                "catalogProductName" : "Internet",
                "offerID" : 8834208,
                "assignedOfferID" : 100095140,
                "offerName" : "BPO_Zakelijk Internet Start, Bellen en TV Start CI+",
                "provisioningDate" : "04-06-2019 06:17:47",
                "simpleCatalogOfferName" : "PO_INT Zakelijk Internet Start"
            },
            "assignedProductId" : 100095143,
            "assignedProductPendingOrdersInd" : true,
            "glpFlag" : false
        }, {
            "assignedProductHeader" : {
                "licenseType" : "TELEFONIE",
                "productStatus" : "PC",
                "effectiveSinceDate" : "12-06-2019 23:59:59",
                "productState" : "OR",
                "productCode" : "TELEFONIE",
                "subscriptionID" : 5838,
                "customerID" : 590007340,
                "serviceID" : "100095138_VOICE",
                "catalogProductID" : 8833308,
                "catalogProductName" : "Telefonie",
                "offerID" : 8834208,
                "assignedOfferID" : 100095140,
                "offerName" : "BPO_Zakelijk Internet Start, Bellen en TV Start CI+",
                "provisioningDate" : "04-06-2019 06:17:47",
                "simpleCatalogOfferName" : "PO_TEL Zakelijk Bellen"
            },
            "assignedProductId" : 100095145,
            "assignedProductPendingOrdersInd" : true,
            "glpFlag" : false
        }, {
            "assignedProductHeader" : {
                "licenseType" : "ADDITIONELE_DIENSTEN",
                "productStatus" : "AC",
                "effectiveSinceDate" : "04-06-2019 06:17:47",
                "productState" : "AS",
                "productCode" : "ADDITIONELE_DIENSTEN",
                "subscriptionID" : 5836,
                "customerID" : 590007340,
                "serviceID" : "100095138_ADDITIONAL_SERVICES",
                "catalogProductID" : 8844789,
                "catalogProductName" : "Additionele Diensten",
                "offerID" : 8834208,
                "assignedOfferID" : 100095140,
                "offerName" : "BPO_Zakelijk Internet Start, Bellen en TV Start CI+",
                "provisioningDate" : "04-06-2019 06:17:47",
                "simpleCatalogOfferName" : "PO_AD Additionele Diensten e-mail en intbev"
            },
            "assignedProductId" : 100095147,
            "assignedProductPendingOrdersInd" : false,
            "glpFlag" : false
        }, {
            "assignedProductHeader" : {
                "licenseType" : "GEDEELDE_HARDWARE",
                "productStatus" : "AC",
                "effectiveSinceDate" : "04-06-2019 06:17:47",
                "productState" : "AS",
                "productCode" : "GEDEELDE_HARDWARE",
                "subscriptionID" : 5840,
                "customerID" : 590007340,
                "serviceID" : "100095138_EQUIPMENT",
                "catalogProductID" : 8832168,
                "catalogProductName" : "Gedeelde Hardware",
                "offerID" : 8834208,
                "assignedOfferID" : 100095140,
                "offerName" : "BPO_Zakelijk Internet Start, Bellen en TV Start CI+",
                "provisioningDate" : "04-06-2019 06:17:47",
                "simpleCatalogOfferName" : "PO_EQU eMTA"
            },
            "assignedProductId" : 100095183,
            "assignedProductPendingOrdersInd" : false,
            "glpFlag" : false
        } ],
        "noAssignedProductsErrorFlag" : false
    }
  }],
  "error":[]
}